<?xml version="1.0" encoding="UTF-8"?>
<svg width="1201px" height="481px" viewBox="0 0 1201 481" version="1.1" xmlns="http://www.w3.org/2000/svg" xmlns:xlink="http://www.w3.org/1999/xlink" xmlns:sketch="http://www.bohemiancoding.com/sketch/ns">
    <!-- Generator: Sketch 3.3.3 (12072) - http://www.bohemiancoding.com/sketch -->
    <title>ibm</title>
    <desc>Created with Sketch.</desc>
    <defs></defs>
    <g id="Page-1" stroke="none" stroke-width="1" fill="none" fill-rule="evenodd" sketch:type="MSPage">
        <g id="ibm" sketch:type="MSLayerGroup">
            <g id="Group" sketch:type="MSShapeGroup">
                <path d="M1032.9,480.9 L934.9,480.9 C934.1,479 935.2,477.3 935.8,475.7 C938.2,468.6 940.8,461.6 943.4,454.6 C945.2,449.7 944.9,449.3 939.6,449.3 L929.1,449.3 C923.7,449.4 923.5,449.7 925.2,454.6 C927.6,461.5 930.2,468.3 932.5,475.2 C933.1,477 934.3,478.9 932.8,480.9 L833.8,480.9 C832.1,479 832.2,476.6 832.2,474.3 C832.1,468.1 832.2,462 832.2,455.8 C832.1,450.1 831.7,449.6 825.8,449.6 C809.8,449.5 793.8,449.6 777.8,449.6 L677.3,449.6 C669.5,449.6 669.4,449.7 669.4,457.3 L669.4,474.3 C669.4,476.6 669.5,479 667.8,480.9 L532.8,480.9 C533.8,477.6 537,478.1 539.4,477.6 C558.7,473.7 575.8,465.1 591.5,453.4 C592.7,452.5 594,451.8 594.8,450.2 C593.8,449.1 592.4,449.5 591.2,449.5 L276.5,449.5 C269.6,449.5 269.5,449.8 269.3,456.9 C269.1,464.4 269.9,471.9 268.8,479.3 C268.5,479.9 268.2,480.4 267.8,480.9 L235.8,480.9 C234.1,479 234.2,476.6 234.2,474.3 C234.1,468.1 234.2,462 234.2,455.8 C234.1,450.1 233.7,449.7 227.8,449.6 L225.3,449.6 L13.4,449.6 C4.5,449.6 4.5,449.6 4.5,458.3 L4.5,474.8 C4.5,477 4.5,479.2 2.9,480.9 C2.3,480.5 0.8,481.9 0.9,479.9 C1,478.7 0.9,477.6 0.9,476.4 L0.9,98 C3.6,95.8 6.9,96.4 10,96.4 L222.3,96.4 C224.5,96.4 226.6,96.4 228.8,96.3 C231.6,96.2 233,94.8 233.1,92 C233.3,85 233.2,78 233.1,71 C233.1,68.1 231.6,66.8 228.8,66.8 C226.8,66.8 224.8,66.7 222.8,66.7 L10,66.7 C6.9,66.7 3.6,67.3 0.9,65.1 L0.9,34.1 C3.6,31.9 6.9,32.5 10,32.5 L219.7,32.5 C235,32.5 233,34 233.2,18.8 L233.2,7.3 C233.2,5.1 233.2,2.9 234.8,1.2 L267.8,1.2 C269.5,3.1 269.3,5.5 269.3,7.8 C269.4,14.5 269.4,21.1 269.3,27.8 C269.3,31.2 270.7,32.7 274,32.6 C275.8,32.5 277.7,32.6 279.5,32.6 L589.1,32.6 C590.9,32.6 592.7,33 594.8,32.1 C593.7,30.3 592,29.2 590.5,28.1 C575,16.5 557.9,8.2 538.7,4.4 C536.5,4 533.5,4.3 532.6,1.2 L665.6,1.2 C667.3,3.1 667.1,5.5 667.1,7.8 C667.2,14.5 667.2,21.1 667.1,27.8 C667.1,31.1 668.5,32.7 671.8,32.6 L675.8,32.6 L855.9,32.6 C864.5,32.6 864.5,32.6 861.5,24.3 C859.4,18.5 857.2,12.8 855.3,6.9 C854.7,5 853.7,3.2 854.5,1.1 L1010.5,1.1 C1012.1,3.4 1011.1,5.6 1010.3,7.7 C1008,14.3 1005.4,20.8 1003.2,27.4 C1001.8,31.7 1002.2,32.2 1006.8,32.4 L1009.8,32.4 L1188.1,32.4 C1196.9,32.4 1196.9,32.4 1196.9,23.6 L1196.9,7.1 C1196.9,4.9 1196.9,2.7 1198.4,1 C1199,1.4 1200.5,3.69704267e-14 1200.4,2 C1200.3,3.2 1200.4,4.3 1200.4,5.5 L1200.4,383.8 C1197.7,386 1194.4,385.4 1191.3,385.4 L1043.4,385.4 C1034.1,385.4 1034.1,385.4 1034.1,394.8 L1034.1,410.3 C1034.1,413.6 1035.5,415.2 1038.9,415.1 L1044.4,415.1 L1191.3,415.1 C1194.4,415.1 1197.7,414.5 1200.4,416.7 L1200.4,447.7 C1197.7,449.9 1194.4,449.3 1191.3,449.3 L1044,449.3 C1034.1,449.3 1034.1,449.3 1034.1,459.1 L1034.1,474.6 C1034.5,476.9 1034.5,479.1 1032.9,480.9 L1032.9,480.9 Z" id="Shape" fill="#FEFEFE"></path>
                <path d="M533,1.1 C535.4,2.9 538.3,2.5 540.9,3.1 C562.5,7.8 581.4,17.8 598.2,32 C598.7,32.4 599,32.9 599.9,34 L594.4,34 C487.4,34 380.5,34 273.5,34.1 C268.5,34.1 267.4,32.7 267.6,28 C268,19 267.9,10 267.9,1 L522.9,1 C524.9,1.8 526.9,1.8 528.9,1 C530.3,1.1 531.7,1.1 533,1.1 L533,1.1 Z" id="Shape" fill="#1F70C0"></path>
                <path d="M268.1,479.9 C268,470.4 268,460.9 267.8,451.4 C267.8,448.9 268.4,447.6 271.1,447.9 C271.8,448 272.4,447.9 273.1,447.9 L595,447.9 L600.5,447.9 C593.1,454.7 585.9,459.6 578.4,464.1 C564.9,472 550.6,477.5 535.1,479.8 C534.3,479.9 533.4,479.8 533.1,480.8 L526.1,480.8 C524.2,479.8 522.2,480.3 520.2,480.3 C438.1,480.3 356.1,480.3 274,480.2 C272,480.4 270,480.9 268.1,479.9 L268.1,479.9 Z" id="Shape" fill="#1F70C0"></path>
                <path d="M235,1.1 C234.9,10.1 234.5,19.1 234.8,28 C235,32.7 233.8,34.1 228.8,34.1 C154.6,34 80.3,34 6,34 C4.3,34 2.7,34 1,34.1 C1,24.5 1.2,14.8 1,5.2 C0.9,1.9 1.4,1 5,1 C49.7,1.2 94.5,1.1 139.2,1.1 L235,1.1 L235,1.1 Z" id="Shape" fill="#1F70C0"></path>
                <path d="M1.1,65.1 C77.7,65.1 154.3,65.1 230.9,65 C234,65 234.9,66 234.8,69 C234.6,76.8 234.5,84.7 234.8,92.5 C235,96.8 233.9,98.1 229.4,98.1 C189.6,97.9 149.8,98 110,98 C73.7,98 37.4,98.1 1.1,98.2 C1.1,87.1 1.1,76.1 1.1,65.1 L1.1,65.1 Z" id="Shape" fill="#1F70C0"></path>
                <path d="M3.1,480.9 C3.1,471.9 3.3,462.9 2.9,453.9 C2.7,449.2 3.8,447.8 8.8,447.8 C71.2,448 133.7,447.9 196.1,447.9 C207.9,447.9 219.7,448 231.6,447.8 C235.1,447.7 236.7,448.4 236.5,452.4 C236.1,461.9 236.2,471.4 236.1,480.8 C158.4,480.9 80.8,480.9 3.1,480.9 L3.1,480.9 Z" id="Shape" fill="#1F70C0"></path>
                <path d="M855,1.1 C859,11.8 863,22.5 867.2,33.7 C865.1,33.8 863.5,34 862,34 C798.4,34 734.8,34 671.2,34.1 C666.6,34.1 665.7,32.7 665.8,28.5 C666.1,19.4 666,10.2 666,1 C729,1.1 792,1.1 855,1.1 L855,1.1 Z" id="Shape" fill="#1F70C0"></path>
                <path d="M1198.9,1.1 C1198.9,10.7 1198.9,20.4 1199.1,30 C1199.2,32.9 1198.6,34 1195.3,34 C1131.4,33.9 1067.5,33.9 1003.6,34 C1000.1,34 999.8,33.2 1000.9,30.1 C1004.3,20.4 1008.7,11.1 1011,1 C1073.6,1.1 1136.2,1.1 1198.9,1.1 L1198.9,1.1 Z" id="Shape" fill="#1F70C0"></path>
                <path d="M1032.9,480.9 C1032.8,471.9 1033,462.9 1032.6,453.9 C1032.4,449.2 1033.5,447.8 1038.5,447.8 C1090.6,448 1142.8,447.9 1194.9,447.9 C1196.9,447.9 1198.9,447.9 1200.9,447.8 C1200.9,457.6 1200.8,467.5 1201,477.3 C1201.1,480.3 1200.4,480.9 1197.4,480.9 L1032.9,480.9 L1032.9,480.9 Z" id="Shape" fill="#1F70C0"></path>
                <path d="M1200.9,416.9 C1146.1,416.9 1091.3,416.9 1036.5,417 C1033.3,417 1032.6,416 1032.7,413 C1032.9,404.8 1033,396.7 1032.7,388.5 C1032.5,384.5 1034.1,383.9 1037.6,383.9 C1090.1,384 1142.5,384 1195,384 C1197,384 1199,383.9 1201,383.8 C1200.9,394.9 1200.9,405.9 1200.9,416.9 L1200.9,416.9 Z" id="Shape" fill="#1F70C0"></path>
                <path d="M668,480.9 C667.9,471.3 668,461.6 667.7,452 C667.6,448.5 669,447.9 672,448 C687.6,448.1 703.3,448.1 718.9,448.1 C755.5,448.1 792.1,448.2 828.7,448 C832.7,448 834.2,448.7 834,453.1 C833.6,462.4 833.9,471.7 833.8,481 C778.6,480.9 723.3,480.9 668,480.9 L668,480.9 Z" id="Shape" fill="#1F70C0"></path>
                <path d="M932.9,480.9 C929.5,471.2 926.3,461.4 922.8,451.8 C921.6,448.6 922.2,447.8 925.6,447.9 C932.6,448.1 939.6,448 947.3,448 C943.1,459.3 939,470.1 934.9,480.9 L932.9,480.9 L932.9,480.9 Z" id="Shape" fill="#2070C0"></path>
                <path d="M268.1,479.9 L519.9,479.9 C522,479.9 524.3,479 526.1,480.9 L268.1,480.9 C268.1,480.6 268.1,480.2 268.1,479.9 L268.1,479.9 Z" id="Shape" fill="#2E7AC4"></path>
                <path d="M529,1.1 C527,2.7 525,2.6 523,1.1 L529,1.1 L529,1.1 Z" id="Shape" fill="#3880C7"></path>
                <path d="M933.9,220.4 C937,211.8 939.9,204.6 942.2,197.2 C943.3,193.7 945.1,192.7 948.6,192.7 C1008.7,192.8 1068.9,192.8 1129,192.7 C1133.1,192.7 1134,193.9 1133.9,197.7 C1133.6,205.7 1133.7,213.7 1133.9,221.7 C1134,224.5 1133.1,225.4 1130.2,225.4 C1098.9,225.3 1067.6,225.3 1036.2,225.4 C1033.2,225.4 1032.5,224.2 1032.7,221.6 C1032.9,217.8 1032.7,213.9 1032.7,209 C1029.8,213.1 1028.8,217 1027.6,220.7 C1026.5,224.2 1024.8,225.5 1020.9,225.5 C962.4,225.4 903.9,225.3 845.5,225.5 C841.3,225.5 839.6,224.1 838.6,220.4 C837.7,216.8 836.1,213.4 834,210 C834,213.9 833.9,217.8 834,221.7 C834.1,224.4 833.5,225.5 830.5,225.5 C799.2,225.4 767.9,225.4 736.5,225.5 C733.7,225.5 732.8,224.7 732.8,221.8 C733,213.3 733,204.8 732.8,196.3 C732.7,193.3 733.8,192.7 736.6,192.7 C797.7,192.8 858.9,192.8 920,192.7 C922.8,192.7 924.1,193.6 925,196.2 C927.7,203.9 930.6,211.4 933.9,220.4 L933.9,220.4 Z" id="Shape" fill="#1F70C0"></path>
                <path d="M454.1,384.1 C513.9,384.1 573.7,384.1 633.5,384 C638.2,384 639.5,384.9 638.1,389.7 C635.8,397.9 633.9,406.1 629.8,413.6 C628.4,416 626.7,417 623.8,417 C506.5,416.9 389.3,416.9 272,417 C268.3,417 267.6,415.7 267.7,412.4 C267.9,404.7 268,397.1 267.7,389.4 C267.5,385 268.7,383.9 273.2,383.9 C333.5,384.2 393.8,384.1 454.1,384.1 L454.1,384.1 Z" id="Shape" fill="#1F70C0"></path>
                <path d="M453,97.9 C393.2,97.9 333.4,97.8 273.6,98 C268.6,98 267.4,96.6 267.7,91.9 C268.1,84.1 267.9,76.3 267.8,68.4 C267.8,65.8 268.5,64.7 271.2,65 C272.2,65.1 273.2,65 274.2,65 C390.1,65 506,65 622,64.9 C626.8,64.9 629.3,66.5 631.2,70.6 C634.8,78.4 636.8,86.6 638.8,94.8 C639.4,97.5 638.4,98.1 636,97.9 C634.8,97.8 633.7,97.9 632.5,97.9 C572.6,97.9 512.8,97.9 453,97.9 L453,97.9 Z" id="Shape" fill="#1F70C0"></path>
                <path d="M477.5,289.2 C431.7,289.2 385.9,289.1 340.1,289.3 C336,289.3 334.7,288.3 334.9,284.1 C335.3,276.5 335.2,268.8 334.9,261.1 C334.7,257.2 336.1,256.5 339.7,256.5 C368.5,256.6 397.3,256.6 426.2,256.6 C480.2,256.6 534.1,256.6 588.1,256.5 C592.1,256.5 595.1,257.6 597.9,260.3 C605.8,267.8 613.6,275.2 619.3,284.6 C622,289.1 621.9,289.2 616.6,289.2 C570.1,289.2 523.8,289.2 477.5,289.2 L477.5,289.2 Z" id="Shape" fill="#1F70C0"></path>
                <path d="M464.6,225.4 C423.1,225.4 381.6,225.3 340.2,225.5 C336.1,225.5 334.7,224.7 334.9,220.4 C335.3,212.6 335.2,204.7 334.9,196.9 C334.8,193.6 335.9,192.7 339.1,192.8 C356.4,192.9 373.7,192.9 391.1,192.9 L615.5,192.9 C617.3,192.9 619.7,192 620.6,193.5 C621.6,195.1 619.6,196.8 618.7,198.3 C612.4,208.3 604,216.3 595.2,224 C593.2,225.8 590.9,225.4 588.6,225.4 L464.6,225.4 L464.6,225.4 Z" id="Shape" fill="#1F70C0"></path>
                <path d="M119.1,417 C82.1,417 45.2,416.9 8.2,417.1 C4.2,417.1 2.7,416.4 2.9,412 C3.3,403.9 3.1,395.7 3,387.5 C3,385 3.7,383.7 6.4,384.1 C7.2,384.2 8.1,384.1 8.9,384.1 C82.8,384.1 156.8,384.1 230.7,384 C235.1,384 236.8,384.9 236.6,389.7 C236.2,397.2 236.3,404.7 236.6,412.2 C236.8,416.2 235.6,417.2 231.6,417.1 C194,416.9 156.6,417 119.1,417 L119.1,417 Z" id="Shape" fill="#1F70C0"></path>
                <path d="M777.5,97.9 C742,97.9 706.5,97.8 671,98 C666.8,98 665.6,96.9 665.8,92.8 C666.1,85 666,77.1 665.8,69.3 C665.7,66.2 666.3,65 669.8,65 C738,65.1 806.1,65.1 874.3,65 C877.4,65 878.6,66 879.5,68.8 C882.1,77 884.8,85.3 887.8,93.4 C889.2,97.2 888.4,98 884.4,98 C848.8,97.8 813.1,97.9 777.5,97.9 L777.5,97.9 Z" id="Shape" fill="#1F70C0"></path>
                <path d="M1087.7,97.9 C1052.4,97.9 1017.1,97.8 981.8,98 C977.1,98 976.6,96.8 978.1,92.8 C981.1,84.7 983.8,76.5 986.4,68.3 C987.2,65.8 988.4,65 991,65 C1059.1,65.1 1127.2,65.1 1195.3,65 C1198,65 1199.1,65.6 1199,68.6 C1198.8,76.9 1198.7,85.3 1199,93.6 C1199.2,97.8 1197.3,98 1194,98 C1158.6,97.9 1123.2,97.9 1087.7,97.9 L1087.7,97.9 Z" id="Shape" fill="#1F70C0"></path>
                <path d="M1043.9,161.7 L959,161.7 C953.5,161.7 953.6,161.7 955.5,156.4 C958.4,148.4 961.4,140.5 964.1,132.5 C965.1,129.6 966.5,128.8 969.5,128.8 C1022.9,128.9 1076.4,128.9 1129.8,128.8 C1133.1,128.8 1134,129.8 1133.9,133 C1133.7,141.1 1133.6,149.3 1133.9,157.5 C1134,161.2 1132.6,161.8 1129.3,161.8 C1100.9,161.7 1072.4,161.7 1043.9,161.7 L1043.9,161.7 Z" id="Shape" fill="#1F70C0"></path>
                <path d="M822.5,161.7 C794.2,161.7 765.9,161.6 737.6,161.8 C733.9,161.8 732.7,160.9 732.9,157.1 C733.2,149.1 733.1,141.1 732.9,133.1 C732.8,130.1 733.3,128.8 736.9,128.8 C790.2,128.9 843.5,128.9 896.8,128.8 C899.7,128.8 900.9,129.8 901.7,132.4 C904.6,140.9 907.6,149.3 910.9,157.7 C912.3,161.2 911.4,161.8 907.9,161.8 C879.5,161.7 851,161.7 822.5,161.7 L822.5,161.7 Z" id="Shape" fill="#1F70C0"></path>
                <path d="M750.6,417 C724.6,417 698.6,416.9 672.6,417.1 C668.7,417.1 667.5,416.1 667.6,412.2 C667.9,404.2 667.8,396.2 667.6,388.2 C667.5,385.3 668.1,384.1 671.4,384.1 C724.4,384.2 777.4,384.2 830.4,384.1 C833.3,384.1 834.1,385.1 834,387.8 C833.8,396.1 833.8,404.5 834,412.8 C834.1,416.5 832.8,417.1 829.5,417.1 C803.2,416.9 776.9,417 750.6,417 L750.6,417 Z" id="Shape" fill="#1F70C0"></path>
                <path d="M934,256.6 C959.3,256.6 984.6,256.7 1009.9,256.5 C1014.6,256.5 1015,257.6 1013.4,261.7 C1010.3,269.4 1007.6,277.3 1005.1,285.2 C1004.1,288.2 1002.8,289.3 999.5,289.3 C955.9,289.2 912.3,289.2 868.7,289.3 C865.9,289.3 864.2,288.8 863.2,285.8 C860.4,277.5 857.3,269.2 854,261.1 C852.6,257.5 853.3,256.6 857.1,256.7 C882.8,256.7 908.4,256.6 934,256.6 L934,256.6 Z" id="Shape" fill="#1F70C0"></path>
                <path d="M588.7,128.9 C605,128.9 621.3,129 637.6,128.8 C641.1,128.8 642.3,129.7 641.9,133.2 C640.9,141.8 639.1,150.2 636.6,158.5 C635.8,161.1 634.4,161.7 631.9,161.7 C600.8,161.6 569.7,161.6 538.5,161.7 C534.8,161.7 534.1,160.3 534.2,157 C534.4,149 534.4,141 534.2,133 C534.1,129.4 535.4,128.6 538.8,128.6 C555.4,129 572,128.9 588.7,128.9 L588.7,128.9 Z" id="Shape" fill="#1F70C0"></path>
                <path d="M587.8,353.1 C571.5,353.1 555.2,353 538.9,353.2 C535.1,353.3 534.1,352.2 534.2,348.5 C534.5,340.4 534.4,332.2 534.2,324.1 C534.2,321.3 535.1,320.3 537.9,320.4 C569.3,320.5 600.8,320.5 632.2,320.4 C634.6,320.4 635.8,321.2 636.5,323.5 C639,331.8 640.8,340.2 641.8,348.8 C642.2,352.2 641.3,353.4 637.7,353.3 C621.1,353 604.4,353.1 587.8,353.1 L587.8,353.1 Z" id="Shape" fill="#1F70C0"></path>
                <path d="M933.9,320.3 C951.7,320.3 969.6,320.4 987.4,320.2 C991.9,320.1 992.3,321.4 990.8,325.2 C987.6,333.2 984.7,341.4 981.9,349.5 C981,352 979.9,353.1 977,353.1 C948.3,353 919.7,353 891,353.1 C888.2,353.1 886.9,352.3 886,349.6 C883.1,341.1 880.2,332.6 876.9,324.3 C875.4,320.6 876.7,320.2 880,320.2 C897.9,320.3 915.9,320.3 933.9,320.3 L933.9,320.3 Z" id="Shape" fill="#1F70C0"></path>
                <path d="M783,353.1 C767.8,353.1 752.7,353 737.5,353.2 C733.7,353.3 732.8,352.1 732.9,348.5 C733.2,340.3 733.1,332.2 732.9,324 C732.8,321.2 733.6,320.3 736.5,320.3 C767.8,320.4 799.1,320.4 830.5,320.3 C833.5,320.3 834.1,321.3 834.1,324.1 C834,332.4 833.9,340.8 834.1,349.1 C834.2,352.4 833.2,353.3 829.9,353.3 C814.3,353 798.6,353.1 783,353.1 L783,353.1 Z" id="Shape" fill="#1F70C0"></path>
                <path d="M385.6,353.1 C370.3,353.1 354.9,353 339.6,353.2 C336.1,353.2 334.6,352.6 334.8,348.7 C335.1,340.6 335,332.4 334.8,324.2 C334.7,321.1 335.8,320.3 338.8,320.3 C369.9,320.4 401.1,320.4 432.2,320.3 C435.5,320.3 436,321.6 436,324.4 C435.8,332.7 435.8,341.1 436,349.4 C436.1,352.6 435,353.3 432,353.2 C416.6,353 401.1,353.1 385.6,353.1 L385.6,353.1 Z" id="Shape" fill="#1F70C0"></path>
                <path d="M1083.4,320.3 C1098.7,320.3 1114,320.4 1129.4,320.2 C1132.8,320.2 1134,321 1133.9,324.6 C1133.6,332.7 1133.6,340.9 1133.9,349.1 C1134,352.5 1132.7,353.2 1129.6,353.2 C1098.6,353.1 1067.6,353.1 1036.7,353.2 C1033.8,353.2 1032.6,352.6 1032.7,349.4 C1032.9,341.1 1033,332.7 1032.7,324.4 C1032.6,320.9 1033.9,320.2 1037,320.3 C1052.5,320.3 1067.9,320.3 1083.4,320.3 L1083.4,320.3 Z" id="Shape" fill="#1F70C0"></path>
                <path d="M118.7,353.1 C103.2,353.1 87.7,353 72.2,353.2 C68.9,353.2 67.9,352.3 68,349 C68.2,340.7 68.2,332.4 68,324 C68,321.3 68.7,320.2 71.6,320.2 C102.9,320.3 134.2,320.3 165.5,320.2 C167.9,320.2 169.2,320.5 169.2,323.4 C169.1,332.2 169,341.1 169.2,349.9 C169.3,353.3 167.3,353.1 165.1,353.1 L118.7,353.1 L118.7,353.1 Z" id="Shape" fill="#1F70C0"></path>
                <path d="M385.3,161.7 C370,161.7 354.6,161.6 339.3,161.8 C335.7,161.8 334.8,160.7 334.9,157.3 C335.1,149 335.1,140.6 334.9,132.3 C334.9,129.8 335.5,128.8 338.2,128.8 C369.7,128.9 401.2,128.9 432.7,128.8 C435.3,128.8 436.1,129.6 436.1,132.2 C436,140.7 435.9,149.2 436.1,157.7 C436.2,161.2 434.8,161.8 431.7,161.7 L385.3,161.7 L385.3,161.7 Z" id="Shape" fill="#1F70C0"></path>
                <path d="M118.6,161.7 C103.3,161.7 87.9,161.6 72.6,161.8 C69.2,161.8 67.9,161 68.1,157.4 C68.4,149.2 68.3,141.1 68.1,132.9 C68.1,130.1 68.5,128.8 71.8,128.8 C103.1,128.9 134.4,128.9 165.8,128.8 C168.8,128.8 169.4,130 169.3,132.6 C169.2,140.9 169.1,149.3 169.3,157.6 C169.4,161 168.2,161.8 165,161.8 C149.6,161.7 134.1,161.7 118.6,161.7 L118.6,161.7 Z" id="Shape" fill="#1F70C0"></path>
                <path d="M1083.4,289.2 C1067.9,289.2 1052.4,289.1 1036.9,289.3 C1033.7,289.3 1032.5,288.6 1032.6,285.2 C1032.8,277 1032.8,268.9 1032.6,260.7 C1032.5,257.3 1033.7,256.5 1036.9,256.6 C1067.9,256.7 1098.9,256.7 1129.8,256.6 C1132.8,256.6 1133.9,257.3 1133.8,260.5 C1133.6,268.8 1133.6,277.2 1133.8,285.5 C1133.9,288.7 1132.7,289.4 1129.8,289.3 C1114.4,289.2 1098.9,289.2 1083.4,289.2 L1083.4,289.2 Z" id="Shape" fill="#1F70C0"></path>
                <path d="M784,256.6 C799.3,256.6 814.6,256.7 829.9,256.5 C833.2,256.5 834.2,257.4 834.1,260.7 C833.9,268.8 833.9,277 834.1,285.1 C834.1,287.9 833.7,289.2 830.4,289.2 C799.1,289.1 767.9,289.1 736.6,289.2 C733.8,289.2 732.9,288.4 732.9,285.6 C733.1,277.3 733.1,269 732.9,260.7 C732.8,257.4 733.9,256.5 737.1,256.6 C752.7,256.7 768.4,256.6 784,256.6 L784,256.6 Z" id="Shape" fill="#1F70C0"></path>
                <path d="M118.8,289.2 C103.3,289.2 87.8,289.1 72.3,289.3 C69.1,289.3 68,288.5 68.1,285.1 C68.3,276.9 68.3,268.8 68.1,260.6 C68,257.7 68.7,256.5 71.9,256.5 C103,256.6 134.2,256.6 165.3,256.5 C168.3,256.5 169.3,257.4 169.3,260.4 C169.1,268.7 169.1,277.1 169.3,285.4 C169.4,288.7 168.1,289.2 165.2,289.2 C149.8,289.2 134.3,289.2 118.8,289.2 L118.8,289.2 Z" id="Shape" fill="#1F70C0"></path>
                <path d="M118.7,225.4 C103.4,225.4 88,225.3 72.7,225.5 C68.9,225.6 67.9,224.4 68,220.7 C68.3,212.5 68.2,204.4 68,196.2 C68,193.7 68.7,192.7 71.3,192.7 C102.8,192.8 134.3,192.8 165.7,192.7 C168.3,192.7 169.1,193.5 169.1,196.1 C169,204.6 168.9,213.1 169.1,221.6 C169.2,224.9 167.8,225.4 165,225.4 C149.7,225.3 134.2,225.4 118.7,225.4 L118.7,225.4 Z" id="Shape" fill="#1F70C0"></path>
                <path d="M934.3,417 C927.5,417 920.6,416.9 913.8,417 C911.5,417 910.2,416.5 909.4,414.1 C906.3,405.2 903,396.3 899.6,387.5 C898.5,384.7 899.2,384.1 902,384.1 C923.3,384.2 944.6,384.2 965.9,384.1 C969,384.1 969.1,385.1 968.2,387.7 C965,396.4 962,405.2 959.1,414.1 C958.3,416.4 957.2,417.2 954.8,417.2 C948,416.9 941.2,417 934.3,417 L934.3,417 Z" id="Shape" fill="#1F70C0"></path>
            </g>
        </g>
    </g>
</svg>